ST_558_HW5
…
The warning message suggests that there are multiple matching rows in both datasets (student-mat and student-por). This happens when combination of values in join are not unique. In this case we have some rows that don’t have unique values for school, sex, age, etc., combinations in both datasets.

Using inner join on all variables except G1, G2, G3, paid, and absences

student_combined_final <- inner_join(d1, d2, by = c("school", "sex", "age", "address", 
                                                                      "famsize", "Pstatus", "Medu", "Fedu", 
                                                                      "Mjob", "Fjob", "reason", "guardian", 
                                                                      "traveltime", "studytime", "failures", 
                                                                      "schoolsup", "famsup", "activities", 
                                                                      "nursery", "higher", "internet", 
                                                                      "romantic", "famrel", "freetime", 
                                                                      "goout", "Dalc", "Walc", "health", "absences"))
student_combined_final

# A tibble: 85 × 37
   school sex     age address famsize Pstatus  Medu  Fedu Mjob     Fjob   reason
   <chr>  <chr> <dbl> <chr>   <chr>   <chr>   <dbl> <dbl> <chr>    <chr>  <chr> 
 1 GP     M        16 U       LE3     T           2     2 other    other  home  
 2 GP     M        15 U       LE3     A           3     2 services other  home  
 3 GP     M        15 U       GT3     T           3     4 other    other  home  
 4 GP     M        15 U       GT3     A           2     2 other    other  home  
 5 GP     M        15 U       GT3     T           4     3 teacher  other  reput…
 6 GP     M        15 U       GT3     T           4     4 health   health other 
 7 GP     F        15 R       GT3     T           2     4 services health course
 8 GP     M        15 U       GT3     T           4     4 health   servi… home  
 9 GP     M        15 R       GT3     T           4     3 teacher  at_ho… course
10 GP     M        15 U       LE3     T           3     3 other    other  course
# ℹ 75 more rows
# ℹ 26 more variables: guardian <chr>, traveltime <dbl>, studytime <dbl>,
#   failures <dbl>, schoolsup <chr>, famsup <chr>, paid.x <chr>,
#   activities <chr>, nursery <chr>, higher <chr>, internet <chr>,
#   romantic <chr>, famrel <dbl>, freetime <dbl>, goout <dbl>, Dalc <dbl>,
#   Walc <dbl>, health <dbl>, absences <dbl>, G1.x <dbl>, G2.x <dbl>,
#   G3.x <dbl>, paid.y <chr>, G1.y <dbl>, G2.y <dbl>, G3.y <dbl>
…
missing_summary <- student_combined |>
  summarize(across(everything(), ~ sum(is.na(.)))) |>
  pivot_longer(cols = everything(), names_to = "Variable", values_to = "Missing_Count") ## |>
  # filter(Missing_Count > 0)

print(missing_summary)

# A tibble: 53 × 2
   Variable Missing_Count
   <chr>            <int>
 1 school               0
 2 sex                  0
 3 age                  0
 4 address              0
 5 famsize              0
 6 Pstatus              0
 7 Medu                 0
 8 Fedu                 0
 9 Mjob                 0
10 Fjob                 0
# ℹ 43 more rows
…
